[
  {
    "model": "location.city",
    "pk": 1,
    "fields": {
      "name":"Wayanad",
      "state":1
    }
  },
  {
    "model": "location.city",
    "pk": 2,
    "fields": {
      "name": "Thrissur",
      "state":1
    }
  },
  {
    "model": "location.city",
    "pk": 3,
    "fields": {
      "name": "Thiruvananthapuram",
      "state":1
    }
  },
  {
    "model": "location.city",
    "pk": 4,
    "fields": {
      "name": "Pathanamthitta",
      "state":1
    }
  },{
    "model": "location.city",
    "pk": 5,
    "fields": {
      "name": "Palakkad",
      "state":1
    }
  },{
    "model": "location.city",
    "pk": 6,
    "fields": {
      "name": "Malappuram",
      "state":1
    }
  },{
    "model": "location.city",
    "pk": 7,
    "fields": {
      "name": "Kozhikode",
      "state":1
    }
  },{
    "model": "location.city",
    "pk": 8,
    "fields": {
      "name": "Kottayam",
      "state":1
    }
  },{
    "model": "location.city",
    "pk": 9,
    "fields": {
      "name": "Kollam",
      "state":1
    }
  },{
    "model": "location.city",
    "pk": 10,
    "fields": {
      "name": "Kasaragod",
      "state":1
    }
  },{
    "model": "location.city",
    "pk": 11,
    "fields": {
      "name": "Kannur",
      "state":1
    }
  },{
    "model": "location.city",
    "pk": 12,
    "fields": {
      "name": "Idukki",
      "state":1
    }
  },{
    "model": "location.city",
    "pk": 13,
    "fields": {
      "name": "Ernakulam",
      "state":1
    }
  },{
    "model": "location.city",
    "pk": 14,
    "fields": {
      "name": "Alappuzha",
      "state":1
    }
  }
]












